G04 Layer_Physical_Order=1*
G04 Layer_Color=11767835*
%FSLAX44Y44*%
%MOMM*%
G71*
G01*
G75*
%ADD10C,1.0160*%
%ADD11C,4.0000*%
%ADD12C,1.2700*%
%ADD13C,0.6500*%
G36*
X4321088Y2322064D02*
Y2080764D01*
X4589312D01*
X4706356Y1963720D01*
X4705870Y1962547D01*
X4545168D01*
X4544829Y1962479D01*
X4544485Y1962457D01*
X4544328Y1962379D01*
X4544157Y1962345D01*
X4543870Y1962154D01*
X4543560Y1962001D01*
X4543445Y1961870D01*
X4543301Y1961773D01*
X4543109Y1961486D01*
X4542881Y1961226D01*
X4494725Y1877818D01*
X3795611D01*
X3748217Y1959906D01*
X3817995Y2080764D01*
X4174022D01*
Y2328922D01*
X4314230D01*
X4321088Y2322064D01*
D02*
G37*
G36*
X4362964Y2645496D02*
X4362147Y2644679D01*
X4360926Y2643087D01*
X4360158Y2641234D01*
X4359896Y2639244D01*
Y2630240D01*
X4360158Y2628250D01*
X4360926Y2626396D01*
X4362147Y2624805D01*
X4362964Y2623988D01*
Y2561586D01*
X3800837D01*
X3748217Y2652726D01*
X3819074Y2775454D01*
X4362964D01*
Y2645496D01*
D02*
G37*
G36*
X4542881Y2651406D02*
X4543109Y2651146D01*
X4543301Y2650859D01*
X4543445Y2650762D01*
X4543560Y2650631D01*
X4543870Y2650478D01*
X4544157Y2650286D01*
X4544328Y2650252D01*
X4544485Y2650175D01*
X4544829Y2650153D01*
X4545168Y2650085D01*
X4943643D01*
X4994103Y2562686D01*
X4993468Y2561586D01*
X4378336D01*
Y2627172D01*
X4378074Y2629161D01*
X4377531Y2630472D01*
X4377306Y2631015D01*
X4376084Y2632607D01*
X4375268Y2633423D01*
Y2636061D01*
X4376084Y2636877D01*
X4377306Y2638469D01*
X4378074Y2640323D01*
X4378336Y2642312D01*
Y2775454D01*
X4471262D01*
X4542881Y2651406D01*
D02*
G37*
D10*
X4176159Y2506446D02*
X4244463Y2438142D01*
X4216006Y2417060D02*
X4402368D01*
X4175289Y2457776D02*
X4216006Y2417060D01*
X4402368D02*
X4422180Y2436872D01*
X4244463Y2438142D02*
X4396018D01*
X4025168Y1643496D02*
X4065168Y1683496D01*
Y1929906D01*
X4564718Y2383322D02*
Y2478826D01*
X4550196Y2368800D02*
X4564718Y2383322D01*
X4356680Y2515445D02*
Y2527717D01*
Y2515445D02*
X4364863Y2507262D01*
X4346179Y2538218D02*
X4356680Y2527717D01*
X4379706Y2510532D02*
X4933012D01*
X4376436Y2507262D02*
X4379706Y2510532D01*
X4336328Y2538218D02*
X4346179D01*
X4320580Y2522470D02*
X4336328Y2538218D01*
X4933012Y2510532D02*
X4964718Y2478826D01*
X4364863Y2507262D02*
X4376436D01*
X4342678Y2519612D02*
Y2521962D01*
X4329511Y2506446D02*
X4342678Y2519612D01*
X4370650Y2521232D02*
Y2627172D01*
X4367582Y2630240D02*
X4370650Y2627172D01*
X3952856Y2145668D02*
Y2324099D01*
Y2145668D02*
X3964718Y2133806D01*
X3932851Y2344104D02*
X3952856Y2324099D01*
X3932851Y2344104D02*
Y2373393D01*
X3894133Y2412111D02*
X3932851Y2373393D01*
X3894133Y2412111D02*
Y2486402D01*
X3914178Y2506446D01*
X3937058D01*
X3957103Y2486402D01*
X4110776D01*
X4143520Y2519146D01*
X4120533Y2473702D02*
X4153277Y2506446D01*
X3947978Y2473702D02*
X4120533D01*
X3942853Y2478826D02*
X3947978Y2473702D01*
X3925618Y2478826D02*
X3942853D01*
X4143520Y2519146D02*
X4181419D01*
X4153277Y2506446D02*
X4176159D01*
X4181419Y2519146D02*
X4235245Y2465320D01*
X4273051D01*
X4314178Y2506446D01*
X4329511D01*
X4364718Y2826626D02*
X4370650Y2820694D01*
Y2642312D02*
Y2820694D01*
X4367582Y2639244D02*
X4370650Y2642312D01*
X4367582Y2630240D02*
Y2639244D01*
X4175289Y2457776D02*
Y2468255D01*
X4164718Y2478826D02*
X4175289Y2468255D01*
D11*
X4265168Y2969136D02*
D03*
X3964718Y2826626D02*
D03*
X4125618D02*
D03*
X3825168Y2682726D02*
D03*
X4025168Y2336316D02*
D03*
X4065168Y2622726D02*
D03*
X4465168D02*
D03*
X4225168Y2682726D02*
D03*
X4864908Y2622726D02*
D03*
X4425168Y2336316D02*
D03*
X4665168Y2276316D02*
D03*
X4265168D02*
D03*
X3825168Y1989906D02*
D03*
X4225168D02*
D03*
X4465168Y1929906D02*
D03*
X4625168Y1989906D02*
D03*
X5065168Y2276316D02*
D03*
X4825168Y2336316D02*
D03*
X4164718Y1786006D02*
D03*
X3925618D02*
D03*
X4125618Y2133806D02*
D03*
X3964718D02*
D03*
X4325618Y1786006D02*
D03*
X3925618Y2478826D02*
D03*
X4164718D02*
D03*
X4325618D02*
D03*
X4364718Y2133806D02*
D03*
X4525618D02*
D03*
X4764718D02*
D03*
X4925618D02*
D03*
X4364718Y2826626D02*
D03*
X4964718Y2478826D02*
D03*
X4564718D02*
D03*
X4725358D02*
D03*
X4025168Y1643496D02*
D03*
X4065168Y1929906D02*
D03*
D12*
X4396018Y2438142D02*
D03*
X4550196Y2368800D02*
D03*
X4370650Y2521232D02*
D03*
X4342678Y2521962D02*
D03*
X4320580Y2522470D02*
D03*
X4422180Y2436872D02*
D03*
D13*
X4356648Y2634738D02*
D03*
X4274566Y1910334D02*
D03*
X4256786D02*
D03*
X4292346D02*
D03*
X4310126D02*
D03*
X4327906D02*
D03*
X4278630Y2634742D02*
D03*
X4258564D02*
D03*
X4238752D02*
D03*
X4298442D02*
D03*
X4318508D02*
D03*
X4363720Y1910334D02*
D03*
X4345940D02*
D03*
X4381500D02*
D03*
X4399280D02*
D03*
X4417060D02*
D03*
X4435094D02*
D03*
X4338320Y2634742D02*
D03*
X4378452D02*
D03*
X4398264D02*
D03*
X4418330D02*
D03*
M02*
